<?xml version="1.0" encoding="utf-8"?>
<svg width="64" height="64" viewBox="0 0 64 64" xmlns="http://www.w3.org/2000/svg">
	<g>
		<path fill="none" stroke="#525252" stroke-width="5" stroke-linejoin="bevel" d="m 5.0916789,20.818994 53.8166421,0"/>
		<path fill="none" stroke="#525252" stroke-width="5" stroke-linejoin="bevel" d="m 5.1969746,31.909063 53.8166424,0"/>
		<path fill="none" stroke="#525252" stroke-width="5" stroke-linejoin="bevel" d="m 5.0916788,42.95698 53.8166422,0"/>
	</g>
</svg>